﻿<?xml version="1.0" encoding="UTF-8"?>
<TestRun id="3ad912ad-514c-4321-98a8-5f757801903d" name="Ryan@Ryan-PC 2014-01-11 08:03:18" runUser="Ryan-PC\Ryan" xmlns="http://microsoft.com/schemas/VisualStudio/TeamTest/2010">
  <TestSettings name="Local" id="2c10d77e-2e55-4569-a332-62d88d4bf623">
    <Description>These are default test settings for a local test run.</Description>
    <Deployment runDeploymentRoot="Ryan_Ryan-PC 2014-01-11 08_03_18">
      <DeploymentItem filename="C:\Users\Ryan\Desktop\Chosen Solution\acortis-duplicate-file-find-and-delete-se-project-1-4d0228510967\FileFindAndDeleteLibrary\bin\Debug\FileFindAndDeleteLibrary.dll" />
      <DeploymentItem filename="C:\Users\Ryan\Desktop\Chosen Solution\acortis-duplicate-file-find-and-delete-se-project-1-4d0228510967\DuplicateFileFindAndDelete\bin\Debug\DuplicateFileFindAndDelete.exe" />
    </Deployment>
    <Execution>
      <TestTypeSpecific>
        <UnitTestRunConfig testTypeId="13cdc9d9-ddb5-4fa4-a97d-d965ccfc6d4b">
          <AssemblyResolution>
            <TestDirectory useLoadContext="true" />
          </AssemblyResolution>
        </UnitTestRunConfig>
      </TestTypeSpecific>
      <AgentRule name="Execution Agents">
      </AgentRule>
    </Execution>
  </TestSettings>
  <Times creation="2014-01-11T08:03:18.5972540+01:00" queuing="2014-01-11T08:03:18.7602633+01:00" start="2014-01-11T08:03:18.7752642+01:00" finish="2014-01-11T08:03:19.4983055+01:00" />
  <ResultSummary outcome="Failed">
    <Counters total="7" executed="7" passed="5" error="0" failed="2" timeout="0" aborted="0" inconclusive="0" passedButRunAborted="0" notRunnable="0" notExecuted="0" disconnected="0" warning="0" completed="0" inProgress="0" pending="0" />
  </ResultSummary>
  <TestDefinitions>
    <UnitTest name="CompareTest" storage="c:\users\ryan\desktop\chosen solution\acortis-duplicate-file-find-and-delete-se-project-1-4d0228510967\testproject\bin\debug\testproject.dll" id="84bf31d7-9b13-56f1-3f4b-2c1a521f09f4">
      <DeploymentItems>
        <DeploymentItem filename="TestProject\CsvFiles\Compare.csv" />
      </DeploymentItems>
      <Execution id="09336477-b110-45df-859b-82dcf4a6024f" />
      <TestMethod codeBase="C:/Users/Ryan/Desktop/Chosen Solution/acortis-duplicate-file-find-and-delete-se-project-1-4d0228510967/TestProject/bin/Debug/TestProject.DLL" adapterTypeName="Microsoft.VisualStudio.TestTools.TestTypes.Unit.UnitTestAdapter, Microsoft.VisualStudio.QualityTools.Tips.UnitTest.Adapter, Version=10.0.0.0, Culture=neutral, PublicKeyToken=b03f5f7f11d50a3a" className="TestProject.DateTimeComparerTest, TestProject, Version=1.0.0.0, Culture=neutral, PublicKeyToken=null" name="CompareTest" />
      <DataSource connectionString="|DataDirectory|\Compare.csv" providerInvariantName="Microsoft.VisualStudio.TestTools.DataSource.CSV" tableName="Compare#csv" />
    </UnitTest>
  </TestDefinitions>
  <TestLists>
    <TestList name="Results Not in a List" id="8c84fa94-04c1-424b-9868-57a2d4851a1d" />
    <TestList name="All Loaded Results" id="19431567-8539-422a-85d7-44ee4e166bda" />
  </TestLists>
  <TestEntries>
    <TestEntry testId="84bf31d7-9b13-56f1-3f4b-2c1a521f09f4" executionId="09336477-b110-45df-859b-82dcf4a6024f" testListId="8c84fa94-04c1-424b-9868-57a2d4851a1d" />
  </TestEntries>
  <Results>
    <UnitTestResult executionId="09336477-b110-45df-859b-82dcf4a6024f" testId="84bf31d7-9b13-56f1-3f4b-2c1a521f09f4" testName="CompareTest" computerName="Ryan-PC" duration="00:00:00.3679916" startTime="2014-01-11T08:03:18.7782643+01:00" endTime="2014-01-11T08:03:19.4743042+01:00" testType="13cdc9d9-ddb5-4fa4-a97d-d965ccfc6d4b" outcome="Failed" testListId="8c84fa94-04c1-424b-9868-57a2d4851a1d" relativeResultsDirectory="09336477-b110-45df-859b-82dcf4a6024f" resultType="DataDrivenTest">
      <Counters error="0" failed="1" timeout="0" aborted="0" inconclusive="0" passedButRunAborted="0" notRunnable="0" notExecuted="0" disconnected="0" warning="0" passed="5" completed="0" inProgress="0" pending="0" />
      <InnerResults>
        <UnitTestResult executionId="07636a95-1bd7-4353-8aa0-6e98947a4b3e" parentExecutionId="09336477-b110-45df-859b-82dcf4a6024f" testId="84bf31d7-9b13-56f1-3f4b-2c1a521f09f4" testName="CompareTest" computerName="Ryan-PC" duration="00:00:00.2170165" startTime="2014-01-11T08:03:19.2342904+01:00" endTime="2014-01-11T08:03:19.4563031+01:00" testType="13cdc9d9-ddb5-4fa4-a97d-d965ccfc6d4b" outcome="Failed" testListId="8c84fa94-04c1-424b-9868-57a2d4851a1d" relativeResultsDirectory="09336477-b110-45df-859b-82dcf4a6024f" dataRowInfo="0" resultType="DataDrivenDataRow">
          <Output>
            <ErrorInfo>
              <Message>Assert.Fail failed. Unexpected: AssertFailedException was thrown.</Message>
              <StackTrace>   at TestProject.DateTimeComparerTest.CompareTest() in C:\Users\Ryan\Desktop\Chosen Solution\acortis-duplicate-file-find-and-delete-se-project-1-4d0228510967\TestProject\DateTimeComparerTest.cs:line 101
</StackTrace>
            </ErrorInfo>
          </Output>
        </UnitTestResult>
        <UnitTestResult executionId="6474c71a-e229-4923-8c76-b529a1051725" parentExecutionId="09336477-b110-45df-859b-82dcf4a6024f" testId="84bf31d7-9b13-56f1-3f4b-2c1a521f09f4" testName="CompareTest" computerName="Ryan-PC" duration="00:00:00.0001002" startTime="2014-01-11T08:03:19.4563031+01:00" endTime="2014-01-11T08:03:19.4573032+01:00" testType="13cdc9d9-ddb5-4fa4-a97d-d965ccfc6d4b" outcome="Passed" testListId="8c84fa94-04c1-424b-9868-57a2d4851a1d" relativeResultsDirectory="09336477-b110-45df-859b-82dcf4a6024f" dataRowInfo="1" resultType="DataDrivenDataRow" />
        <UnitTestResult executionId="3ec09f5c-45d1-4df9-9921-395eab515f74" parentExecutionId="09336477-b110-45df-859b-82dcf4a6024f" testId="84bf31d7-9b13-56f1-3f4b-2c1a521f09f4" testName="CompareTest" computerName="Ryan-PC" duration="00:00:00.0000156" startTime="2014-01-11T08:03:19.4573032+01:00" endTime="2014-01-11T08:03:19.4573032+01:00" testType="13cdc9d9-ddb5-4fa4-a97d-d965ccfc6d4b" outcome="Passed" testListId="8c84fa94-04c1-424b-9868-57a2d4851a1d" relativeResultsDirectory="09336477-b110-45df-859b-82dcf4a6024f" dataRowInfo="2" resultType="DataDrivenDataRow" />
        <UnitTestResult executionId="c462067d-edfa-45e5-ade1-8516f8424010" parentExecutionId="09336477-b110-45df-859b-82dcf4a6024f" testId="84bf31d7-9b13-56f1-3f4b-2c1a521f09f4" testName="CompareTest" computerName="Ryan-PC" duration="00:00:00.0000114" startTime="2014-01-11T08:03:19.4573032+01:00" endTime="2014-01-11T08:03:19.4573032+01:00" testType="13cdc9d9-ddb5-4fa4-a97d-d965ccfc6d4b" outcome="Passed" testListId="8c84fa94-04c1-424b-9868-57a2d4851a1d" relativeResultsDirectory="09336477-b110-45df-859b-82dcf4a6024f" dataRowInfo="3" resultType="DataDrivenDataRow" />
        <UnitTestResult executionId="4d5d033e-0114-47a5-886a-b1746ebc6e40" parentExecutionId="09336477-b110-45df-859b-82dcf4a6024f" testId="84bf31d7-9b13-56f1-3f4b-2c1a521f09f4" testName="CompareTest" computerName="Ryan-PC" duration="00:00:00.0001672" startTime="2014-01-11T08:03:19.4573032+01:00" endTime="2014-01-11T08:03:19.4573032+01:00" testType="13cdc9d9-ddb5-4fa4-a97d-d965ccfc6d4b" outcome="Passed" testListId="8c84fa94-04c1-424b-9868-57a2d4851a1d" relativeResultsDirectory="09336477-b110-45df-859b-82dcf4a6024f" dataRowInfo="4" resultType="DataDrivenDataRow" />
        <UnitTestResult executionId="a6f7e034-3a16-4acc-988f-6d1cdec678f3" parentExecutionId="09336477-b110-45df-859b-82dcf4a6024f" testId="84bf31d7-9b13-56f1-3f4b-2c1a521f09f4" testName="CompareTest" computerName="Ryan-PC" duration="00:00:00.0001147" startTime="2014-01-11T08:03:19.4573032+01:00" endTime="2014-01-11T08:03:19.4573032+01:00" testType="13cdc9d9-ddb5-4fa4-a97d-d965ccfc6d4b" outcome="Passed" testListId="8c84fa94-04c1-424b-9868-57a2d4851a1d" relativeResultsDirectory="09336477-b110-45df-859b-82dcf4a6024f" dataRowInfo="5" resultType="DataDrivenDataRow" />
      </InnerResults>
    </UnitTestResult>
  </Results>
</TestRun>