﻿<?xml version="1.0" encoding="UTF-8"?>
<TestRun id="ae11794a-1951-4fad-b637-550a3ce368d7" name="Ryan@Ryan-PC 2014-01-11 07:49:13" runUser="Ryan-PC\Ryan" xmlns="http://microsoft.com/schemas/VisualStudio/TeamTest/2010">
  <TestSettings name="Local" id="2c10d77e-2e55-4569-a332-62d88d4bf623">
    <Description>These are default test settings for a local test run.</Description>
    <Deployment runDeploymentRoot="Ryan_Ryan-PC 2014-01-11 07_49_13">
      <DeploymentItem filename="C:\Users\Ryan\Desktop\Chosen Solution\acortis-duplicate-file-find-and-delete-se-project-1-4d0228510967\FileFindAndDeleteLibrary\bin\Debug\FileFindAndDeleteLibrary.dll" />
      <DeploymentItem filename="C:\Users\Ryan\Desktop\Chosen Solution\acortis-duplicate-file-find-and-delete-se-project-1-4d0228510967\DuplicateFileFindAndDelete\bin\Debug\DuplicateFileFindAndDelete.exe" />
    </Deployment>
    <Execution>
      <TestTypeSpecific>
        <UnitTestRunConfig testTypeId="13cdc9d9-ddb5-4fa4-a97d-d965ccfc6d4b">
          <AssemblyResolution>
            <TestDirectory useLoadContext="true" />
          </AssemblyResolution>
        </UnitTestRunConfig>
      </TestTypeSpecific>
      <AgentRule name="Execution Agents">
      </AgentRule>
    </Execution>
  </TestSettings>
  <Times creation="2014-01-11T07:49:13.3069062+01:00" queuing="2014-01-11T07:49:14.7619894+01:00" start="2014-01-11T07:49:14.8859965+01:00" finish="2014-01-11T07:49:22.5654357+01:00" />
  <ResultSummary outcome="Failed">
    <Counters total="6" executed="6" passed="4" error="0" failed="2" timeout="0" aborted="0" inconclusive="0" passedButRunAborted="0" notRunnable="0" notExecuted="0" disconnected="0" warning="0" completed="0" inProgress="0" pending="0" />
  </ResultSummary>
  <TestDefinitions>
    <UnitTest name="AddExtensionTest" storage="c:\users\ryan\desktop\chosen solution\acortis-duplicate-file-find-and-delete-se-project-1-4d0228510967\testproject\bin\debug\testproject.dll" id="dbd208f0-d649-3530-deac-e77dfd7d77df">
      <DeploymentItems>
        <DeploymentItem filename="DuplicateFileFindAndDelete.exe" />
        <DeploymentItem filename="TestProject\CsvFiles\AddExtension.csv" />
      </DeploymentItems>
      <Execution id="ca32db00-c0f7-4fa9-b347-1bc923fabeaf" />
      <TestMethod codeBase="C:/Users/Ryan/Desktop/Chosen Solution/acortis-duplicate-file-find-and-delete-se-project-1-4d0228510967/TestProject/bin/Debug/TestProject.DLL" adapterTypeName="Microsoft.VisualStudio.TestTools.TestTypes.Unit.UnitTestAdapter, Microsoft.VisualStudio.QualityTools.Tips.UnitTest.Adapter, Version=10.0.0.0, Culture=neutral, PublicKeyToken=b03f5f7f11d50a3a" className="TestProject.IconListManagerTest, TestProject, Version=1.0.0.0, Culture=neutral, PublicKeyToken=null" name="AddExtensionTest" />
      <DataSource connectionString="|DataDirectory|\AddExtension.csv" providerInvariantName="Microsoft.VisualStudio.TestTools.DataSource.CSV" tableName="AddExtension#csv" />
    </UnitTest>
  </TestDefinitions>
  <TestLists>
    <TestList name="Results Not in a List" id="8c84fa94-04c1-424b-9868-57a2d4851a1d" />
    <TestList name="All Loaded Results" id="19431567-8539-422a-85d7-44ee4e166bda" />
  </TestLists>
  <TestEntries>
    <TestEntry testId="dbd208f0-d649-3530-deac-e77dfd7d77df" executionId="ca32db00-c0f7-4fa9-b347-1bc923fabeaf" testListId="8c84fa94-04c1-424b-9868-57a2d4851a1d" />
  </TestEntries>
  <Results>
    <UnitTestResult executionId="ca32db00-c0f7-4fa9-b347-1bc923fabeaf" testId="dbd208f0-d649-3530-deac-e77dfd7d77df" testName="AddExtensionTest" computerName="Ryan-PC" duration="00:00:06.6046865" startTime="2014-01-11T07:49:15.0030032+01:00" endTime="2014-01-11T07:49:22.4734304+01:00" testType="13cdc9d9-ddb5-4fa4-a97d-d965ccfc6d4b" outcome="Failed" testListId="8c84fa94-04c1-424b-9868-57a2d4851a1d" relativeResultsDirectory="ca32db00-c0f7-4fa9-b347-1bc923fabeaf" resultType="DataDrivenTest">
      <Counters error="0" failed="1" timeout="0" aborted="0" inconclusive="0" passedButRunAborted="0" notRunnable="0" notExecuted="0" disconnected="0" warning="0" passed="4" completed="0" inProgress="0" pending="0" />
      <InnerResults>
        <UnitTestResult executionId="a5d875c1-21a9-4147-81ce-1372b13b4c90" parentExecutionId="ca32db00-c0f7-4fa9-b347-1bc923fabeaf" testId="dbd208f0-d649-3530-deac-e77dfd7d77df" testName="AddExtensionTest" computerName="Ryan-PC" duration="00:00:01.9013755" startTime="2014-01-11T07:49:16.1230672+01:00" endTime="2014-01-11T07:49:18.0311764+01:00" testType="13cdc9d9-ddb5-4fa4-a97d-d965ccfc6d4b" outcome="Passed" testListId="8c84fa94-04c1-424b-9868-57a2d4851a1d" relativeResultsDirectory="ca32db00-c0f7-4fa9-b347-1bc923fabeaf" dataRowInfo="0" resultType="DataDrivenDataRow" />
        <UnitTestResult executionId="8a81ebdc-3ef1-4756-8388-fa6625c30d50" parentExecutionId="ca32db00-c0f7-4fa9-b347-1bc923fabeaf" testId="dbd208f0-d649-3530-deac-e77dfd7d77df" testName="AddExtensionTest" computerName="Ryan-PC" duration="00:00:00.0104899" startTime="2014-01-11T07:49:18.0311764+01:00" endTime="2014-01-11T07:49:18.0421770+01:00" testType="13cdc9d9-ddb5-4fa4-a97d-d965ccfc6d4b" outcome="Passed" testListId="8c84fa94-04c1-424b-9868-57a2d4851a1d" relativeResultsDirectory="ca32db00-c0f7-4fa9-b347-1bc923fabeaf" dataRowInfo="1" resultType="DataDrivenDataRow" />
        <UnitTestResult executionId="c35866c8-9bf3-4972-8a73-4ee1a205f95e" parentExecutionId="ca32db00-c0f7-4fa9-b347-1bc923fabeaf" testId="dbd208f0-d649-3530-deac-e77dfd7d77df" testName="AddExtensionTest" computerName="Ryan-PC" duration="00:00:00.4652789" startTime="2014-01-11T07:49:18.0421770+01:00" endTime="2014-01-11T07:49:18.5072036+01:00" testType="13cdc9d9-ddb5-4fa4-a97d-d965ccfc6d4b" outcome="Passed" testListId="8c84fa94-04c1-424b-9868-57a2d4851a1d" relativeResultsDirectory="ca32db00-c0f7-4fa9-b347-1bc923fabeaf" dataRowInfo="2" resultType="DataDrivenDataRow" />
        <UnitTestResult executionId="51b3a652-b087-435a-8175-e59af636619d" parentExecutionId="ca32db00-c0f7-4fa9-b347-1bc923fabeaf" testId="dbd208f0-d649-3530-deac-e77dfd7d77df" testName="AddExtensionTest" computerName="Ryan-PC" duration="00:00:02.1476801" startTime="2014-01-11T07:49:18.5072036+01:00" endTime="2014-01-11T07:49:20.6553265+01:00" testType="13cdc9d9-ddb5-4fa4-a97d-d965ccfc6d4b" outcome="Passed" testListId="8c84fa94-04c1-424b-9868-57a2d4851a1d" relativeResultsDirectory="ca32db00-c0f7-4fa9-b347-1bc923fabeaf" dataRowInfo="3" resultType="DataDrivenDataRow" />
        <UnitTestResult executionId="09557983-aac0-4027-b220-133b3a9a9471" parentExecutionId="ca32db00-c0f7-4fa9-b347-1bc923fabeaf" testId="dbd208f0-d649-3530-deac-e77dfd7d77df" testName="AddExtensionTest" computerName="Ryan-PC" duration="00:00:01.7761555" startTime="2014-01-11T07:49:20.6553265+01:00" endTime="2014-01-11T07:49:22.4314280+01:00" testType="13cdc9d9-ddb5-4fa4-a97d-d965ccfc6d4b" outcome="Failed" testListId="8c84fa94-04c1-424b-9868-57a2d4851a1d" relativeResultsDirectory="ca32db00-c0f7-4fa9-b347-1bc923fabeaf" dataRowInfo="4" resultType="DataDrivenDataRow">
          <Output>
            <ErrorInfo>
              <Message>Assert.Fail failed. Unexpected: InvalidCastException was thrown.</Message>
              <StackTrace>   at TestProject.IconListManagerTest.AddExtensionTest() in C:\Users\Ryan\Desktop\Chosen Solution\acortis-duplicate-file-find-and-delete-se-project-1-4d0228510967\TestProject\IconListManagerTest.cs:line 108
</StackTrace>
            </ErrorInfo>
          </Output>
        </UnitTestResult>
      </InnerResults>
    </UnitTestResult>
  </Results>
</TestRun>