Path,FileName,ImageName,Small,Expected,Exception
,test-copy.pdf,test.jpg,TRUE,1,FileNotFoundException
C:\Users\Ryan\Desktop\Chosen Solution\acortis-duplicate-file-find-and-delete-se-project-1-4d0228510967\TestProject\test-folder,test-copy.pdf,test.jpg,TRUE,1,
C:\Users\Ryan\Desktop\Chosen Solution\acortis-duplicate-file-find-and-delete-se-project-1-4d0228510967\Test\test-fold,test-copy.pdf,test.jpg,TRUE,1,FileNotFoundException
