^C:\DROPBOX\MY DROPBOX\DUPLICATEFILEFINDANDDELETE\DUPLICATE-FILE-FIND-AND-DELETE\DUPLICATEFILEFINDANDDELETE\MAINFORM.RESX|C:\DROPBOX\MY DROPBOX\DUPLICATEFILEFINDANDDELETE\DUPLICATE-FILE-FIND-AND-DELETE\DUPLICATEFILEFINDANDDELETE\PROPERTIES\RESOURCES.RESX|C:\DROPBOX\MY DROPBOX\DUPLICATEFILEFINDANDDELETE\DUPLICATE-FILE-FIND-AND-DELETE\DUPLICATEFILEFINDANDDELETE\REPORTFORM.RESX
C:\DROPBOX\MY DROPBOX\DUPLICATEFILEFINDANDDELETE\DUPLICATE-FILE-FIND-AND-DELETE\DUPLICATEFILEFINDANDDELETE\OBJ\X86\DEBUG\DUPLICATEFILEFINDANDDELETE.MAINFORM.RESOURCES
C:\DROPBOX\MY DROPBOX\DUPLICATEFILEFINDANDDELETE\DUPLICATE-FILE-FIND-AND-DELETE\DUPLICATEFILEFINDANDDELETE\OBJ\X86\DEBUG\DUPLICATEFILEFINDANDDELETE.PROPERTIES.RESOURCES.RESOURCES
C:\DROPBOX\MY DROPBOX\DUPLICATEFILEFINDANDDELETE\DUPLICATE-FILE-FIND-AND-DELETE\DUPLICATEFILEFINDANDDELETE\OBJ\X86\DEBUG\DUPLICATEFILEFINDANDDELETE.REPORTFORM.RESOURCES
